%!PS-Adobe-3.0 EPSF-3.0
%%Creator: cairo 1.17.4 (https://cairographics.org)
%%CreationDate: Wed Feb  9 14:52:47 2022
%%Pages: 1
%%DocumentData: Clean7Bit
%%LanguageLevel: 2
%%BoundingBox: 16 5 819 195
%%EndComments
%%BeginProlog
50 dict begin
/q { gsave } bind def
/Q { grestore } bind def
/cm { 6 array astore concat } bind def
/w { setlinewidth } bind def
/J { setlinecap } bind def
/j { setlinejoin } bind def
/M { setmiterlimit } bind def
/d { setdash } bind def
/m { moveto } bind def
/l { lineto } bind def
/c { curveto } bind def
/h { closepath } bind def
/re { exch dup neg 3 1 roll 5 3 roll moveto 0 rlineto
      0 exch rlineto 0 rlineto closepath } bind def
/S { stroke } bind def
/f { fill } bind def
/f* { eofill } bind def
/n { newpath } bind def
/W { clip } bind def
/W* { eoclip } bind def
/BT { } bind def
/ET { } bind def
/BDC { mark 3 1 roll /BDC pdfmark } bind def
/EMC { mark /EMC pdfmark } bind def
/cairo_store_point { /cairo_point_y exch def /cairo_point_x exch def } def
/Tj { show currentpoint cairo_store_point } bind def
/TJ {
  {
    dup
    type /stringtype eq
    { show } { -0.001 mul 0 cairo_font_matrix dtransform rmoveto } ifelse
  } forall
  currentpoint cairo_store_point
} bind def
/cairo_selectfont { cairo_font_matrix aload pop pop pop 0 0 6 array astore
    cairo_font exch selectfont cairo_point_x cairo_point_y moveto } bind def
/Tf { pop /cairo_font exch def /cairo_font_matrix where
      { pop cairo_selectfont } if } bind def
/Td { matrix translate cairo_font_matrix matrix concatmatrix dup
      /cairo_font_matrix exch def dup 4 get exch 5 get cairo_store_point
      /cairo_font where { pop cairo_selectfont } if } bind def
/Tm { 2 copy 8 2 roll 6 array astore /cairo_font_matrix exch def
      cairo_store_point /cairo_font where { pop cairo_selectfont } if } bind def
/g { setgray } bind def
/rg { setrgbcolor } bind def
/d1 { setcachedevice } bind def
/cairo_data_source {
  CairoDataIndex CairoData length lt
    { CairoData CairoDataIndex get /CairoDataIndex CairoDataIndex 1 add def }
    { () } ifelse
} def
/cairo_flush_ascii85_file { cairo_ascii85_file status { cairo_ascii85_file flushfile } if } def
/cairo_image { image cairo_flush_ascii85_file } def
/cairo_imagemask { imagemask cairo_flush_ascii85_file } def
%%EndProlog
%%BeginSetup
%%EndSetup
%%Page: 1 1
%%BeginPageSetup
%%PageBoundingBox: 16 5 819 195
%%EndPageSetup
q 16 5 803 190 rectclip
1 0 0 -1 0 201 cm q
0.0784314 0.0862745 0.266667 rg
716.625 48.824 m 716.625 73.727 l 687.449 73.727 l 687.375 104.926 l 664.273
 104.773 l 664.273 17.625 l 716.625 17.773 l 716.625 42.676 l 687.449 42.676
 l 687.449 48.824 l h
716.625 48.824 m f
787.352 60.898 m 813.824 104.926 l 779.699 104.926 l 770.477 89.551 l 761.324
 104.926 l 727.574 104.926 l 753.375 61.125 l 727.273 17.551 l 761.324 17.551
 l 770.324 32.625 l 779.25 17.551 l 813 17.551 l h
787.352 60.898 m f
283.875 58.199 m 283.949 58.273 283.949 58.273 283.949 58.352 c 283.949
 60.301 l 283.949 60.375 283.949 60.449 283.875 60.449 c 236.551 60.449 
l 236.551 102.602 l 236.551 102.676 236.477 102.75 236.398 102.75 c 234.148
 102.75 l 234.074 102.75 234 102.75 234 102.602 c 234 18.148 l 234 18.074
 234.074 18.074 234.148 18.074 c 283.801 18.074 l 283.875 18.074 283.875
 18.074 283.875 18.148 c 283.875 20.023 l 283.875 20.102 283.875 20.176 
283.801 20.176 c 236.477 20.176 l 236.477 58.273 l h
283.875 58.199 m f
339 61.727 m 318 61.727 l 308.477 95.023 l 308.398 95.102 307.727 97.648
 306.227 102.676 c 306.074 102.75 l 303.75 102.75 l 303.602 102.676 l 313.199
 69.301 320.023 45.75 323.926 31.949 c 326.699 22.273 328.199 17.102 328.426
 16.426 c 346.727 79.727 l 353.25 102.676 l 353.102 102.75 l 350.773 102.75
 l 350.625 102.75 350.324 101.852 349.875 100.051 c 343.199 76.426 339.523
 63.676 339 61.727 c h
338.398 59.551 m 328.5 25.199 l 318.602 59.551 l 318.602 59.551 338.398
 59.551 338.398 59.551 c h
338.398 59.551 m f
407.023 100.574 m 411.148 100.574 414.75 99.074 417.676 96 c 419.551 93.824
 420.449 91.5 420.449 88.949 c 420.449 77.398 l 420.449 77.324 420.523 77.25
 420.602 77.25 c 422.852 77.25 l 422.926 77.25 423 77.25 423 77.398 c 423
 89.102 l 423 92.551 421.426 95.699 418.273 98.551 c 414.824 101.25 411.074
 102.602 406.949 102.602 c 406.801 102.602 l 406.801 100.5 l 406.875 100.574
 406.949 100.574 407.023 100.574 c h
407.023 100.574 m f
407.023 18.227 m 411.602 18.227 415.648 19.875 419.023 23.102 c 421.648
 25.801 423 28.875 423 32.398 c 423 43.426 l 423 43.5 422.926 43.5 422.852
 43.5 c 420.602 43.5 l 420.523 43.5 420.449 43.5 420.449 43.426 c 420.449
 32.176 l 420.449 27.676 417.898 24.148 412.801 21.602 c 410.773 20.773 
408.75 20.398 406.648 20.398 c 389.477 20.398 l 384.523 20.398 380.477 22.426
 377.324 26.477 c 376.199 28.273 375.676 30.227 375.676 32.176 c 375.676
 89.023 l 375.676 93.227 378 96.602 382.574 99.148 c 384.75 100.125 387 
100.648 389.25 100.648 c 406.727 100.648 l 406.801 100.648 406.801 100.648
 406.801 100.727 c 406.801 102.824 l 388.949 102.824 l 384.824 102.824 380.926
 101.324 377.398 98.324 c 374.551 95.551 373.125 92.551 373.125 89.324 c
 373.125 32.398 l 373.125 27.523 375.449 23.625 380.176 20.625 c 383.023
 19.051 385.875 18.227 388.875 18.227 c h
407.023 18.227 m f
468.898 20.176 m 468.898 102.523 l 468.898 102.602 468.824 102.676 468.75
 102.676 c 466.5 102.676 l 466.426 102.676 466.352 102.676 466.352 102.523
 c 466.352 20.176 l 442.801 20.176 l 442.727 20.176 442.648 20.102 442.648
 20.023 c 442.648 18.148 l 442.648 18.074 442.727 18.074 442.801 18.074 
c 492.375 18.074 l 492.449 18.074 492.523 18.074 492.523 18.148 c 492.523
 20.023 l 492.523 20.102 492.449 20.176 492.375 20.176 c h
468.898 20.176 m f
546.977 18.227 m 549.602 18.523 551.551 18.977 552.977 19.574 c 556.949
 21.375 559.648 24 561.148 27.523 c 561.75 28.875 562.051 30.375 562.051
 31.875 c 562.051 89.102 l 562.051 93.824 559.426 97.727 554.25 100.801 
c 551.477 102.074 548.773 102.75 546 102.75 c 545.625 102.75 l 545.625 100.648
 l 549.375 100.648 552.602 99.523 555.375 97.273 c 558.074 94.949 559.426
 92.176 559.426 89.023 c 559.426 32.023 l 559.426 28.051 557.398 24.824 
553.273 22.273 c 551.023 21 548.477 20.398 545.625 20.398 c 543.977 20.398
 l 543.977 18.301 l 544.801 18.227 545.773 18.227 546.977 18.227 c h
546.977 18.227 m f
530.25 18.227 m 544.051 18.227 l 544.051 20.324 l 528.676 20.324 l 524.852
 20.324 521.625 21.449 518.926 23.699 c 516.148 26.023 514.801 28.801 514.801
 31.949 c 514.801 88.949 l 514.801 92.102 516.148 94.801 518.852 97.125 
c 521.551 99.375 524.852 100.574 528.676 100.574 c 545.773 100.574 l 545.773
 102.676 l 528.301 102.676 l 523.125 102.676 518.773 100.727 515.176 96.824
 c 513.301 94.273 512.324 91.727 512.324 89.023 c 512.324 31.801 l 512.324
 27.074 514.875 23.176 519.977 20.176 c 522.75 18.898 525.148 18.227 527.25
 18.227 c 527.25 18.148 l 528.523 18.227 529.574 18.227 530.25 18.227 c 
h
530.25 18.227 m f
616.949 59.176 m 620.773 58.801 624 57.148 626.625 54.227 c 628.273 52.125
 629.176 49.949 629.176 47.773 c 629.25 47.773 629.398 47.699 629.551 47.699
 c 629.551 47.625 l 629.324 47.625 629.176 47.625 629.176 47.477 c 629.176
 32.625 l 629.176 28.949 627.977 26.102 625.648 24.074 c 624.449 22.949 
623.25 22.125 622.125 21.602 c 619.801 20.625 617.625 20.102 615.523 20.102
 c 615.523 18 l 615.75 18 l 620.926 18 625.273 20.023 628.949 24 c 630.824
 26.477 631.801 29.023 631.801 31.648 c 631.801 47.773 l 631.801 52.352 
629.398 56.102 624.523 59.102 c 622.5 60.301 620.023 61.051 617.25 61.352
 c h
616.949 59.176 m f
615.301 59.25 m 615.898 59.25 616.426 59.25 616.949 59.176 c 617.176 61.352
 l 616.352 61.426 615.449 61.5 614.551 61.5 c 600.375 61.5 l 631.648 102.602
 l 631.648 102.75 l 628.727 102.75 l 627.898 101.625 616.875 87.148 595.648
 59.324 c 595.801 59.25 l h
615.301 59.25 m f
581.926 18 m 615.523 18 l 615.523 20.102 l 615.449 20.102 615.375 20.102
 615.375 20.176 c 614.699 20.102 l 584.324 20.102 l 584.324 102.523 l 584.324
 102.602 584.25 102.676 584.176 102.676 c 581.926 102.676 l 581.852 102.676
 581.773 102.676 581.773 102.523 c 581.773 18.148 l 581.773 18.074 581.852
 18 581.926 18 c h
581.926 18 m f
234.75 121.5 583.949 2.176 re f
814.426 161.477 m 814.426 161.551 814.5 161.551 814.426 161.477 c 814.5
 162.375 l 814.5 162.375 814.5 162.375 814.426 162.375 c 794.25 162.375 
l 794.25 180.449 l 814.426 180.449 l 814.426 180.449 814.5 180.449 814.5
 180.523 c 814.5 181.352 l 814.5 181.426 814.5 181.426 814.426 181.426 c
 793.273 181.426 l 793.199 181.426 793.199 181.426 793.199 181.352 c 793.199
 143.398 l 793.199 143.324 793.199 143.324 793.273 143.324 c 814.426 143.324
 l 814.426 143.324 814.5 143.324 814.5 143.398 c 814.5 144.227 l 814.5 144.227
 814.5 144.301 814.426 144.301 c 794.25 144.301 l 794.25 161.398 l h
814.426 161.477 m f
783.676 149.699 m 783.676 147.676 782.551 146.102 780.375 144.977 c 779.551
 144.602 778.648 144.375 777.75 144.375 c 770.398 144.375 l 768.301 144.375
 766.574 145.273 765.227 147.148 c 764.773 147.977 764.477 148.801 764.477
 149.699 c 764.477 175.273 l 764.477 177.148 765.449 178.648 767.398 179.852
 c 768.375 180.301 769.273 180.523 770.25 180.523 c 777.75 180.523 l 777.824
 180.523 777.824 180.523 777.824 180.523 c 779.625 180.523 781.125 179.852
 782.398 178.5 c 783.227 177.523 783.602 176.477 783.602 175.352 c 783.602
 170.176 l 783.602 170.102 783.602 170.102 783.676 170.102 c 784.648 170.102
 l 784.727 170.102 784.727 170.102 784.727 170.176 c 784.727 175.426 l 784.727
 177 784.051 178.426 782.699 179.699 c 781.199 180.898 779.625 181.5 777.898
 181.5 c 770.25 181.5 l 768.449 181.5 766.801 180.824 765.301 179.477 c 
764.102 178.199 763.5 176.852 763.5 175.426 c 763.5 149.852 l 763.5 147.676
 764.477 145.875 766.5 144.523 c 767.699 143.773 768.977 143.398 770.25 
143.398 c 777.977 143.398 l 779.926 143.398 781.648 144.148 783.074 145.574
 c 784.199 146.773 784.801 148.199 784.801 149.773 c 784.801 154.727 l 784.801
 154.801 784.801 154.801 784.727 154.801 c 783.75 154.801 l 783.676 154.801
 783.676 154.801 783.676 154.727 c h
783.676 149.699 m f
748.273 143.324 m 750.449 143.324 752.324 144.227 753.898 146.023 c 754.727
 147.148 755.102 148.273 755.102 149.477 c 755.102 156.75 l 755.102 158.773
 754.051 160.5 752.023 161.852 c 750.898 162.523 749.477 162.898 747.824
 162.898 c 741.75 162.898 l 755.102 181.426 l 755.102 181.5 l 753.824 181.5
 l 753.449 180.977 748.727 174.449 739.648 161.926 c 748.051 161.926 l 750
 161.926 751.648 161.176 752.926 159.676 c 753.676 158.699 753.977 157.727
 753.977 156.75 c 753.977 156.75 754.051 156.75 754.125 156.75 c 754.051
 156.75 753.977 156.75 753.977 156.676 c 753.977 150 l 753.977 148.352 753.449
 147.074 752.477 146.176 c 751.949 145.648 751.426 145.273 750.977 145.051
 c 750 144.602 749.023 144.375 748.125 144.375 c 748.051 144.375 748.051
 144.375 748.051 144.375 c 734.773 144.375 l 734.773 181.5 l 734.773 181.574
 734.773 181.574 734.699 181.574 c 733.727 181.574 l 733.727 181.574 733.648
 181.574 733.648 181.5 c 733.648 143.477 l 733.648 143.398 733.648 143.398
 733.727 143.398 c h
748.273 143.324 m f
718.648 181.5 m 711.148 181.5 l 709.051 181.5 707.25 180.676 705.676 179.023
 c 705 178.199 704.551 177.301 704.324 176.398 c 704.176 175.801 l 704.102
 175.801 704.102 175.801 704.102 175.727 c 704.102 143.398 l 704.102 143.324
 704.102 143.324 704.176 143.324 c 705.148 143.324 l 705.227 143.324 705.227
 143.324 705.227 143.398 c 705.227 175.352 l 705.301 175.352 705.301 175.648
 705.375 176.25 c 705.75 177.523 706.352 178.5 707.25 179.176 c 708.449 
180 709.727 180.449 711 180.449 c 711.074 180.523 l 711.074 180.523 711.074
 180.449 711.148 180.449 c 718.426 180.449 l 718.5 180.449 718.5 180.449
 718.5 180.449 c 720.301 180.449 721.801 179.773 723.074 178.426 c 723.898
 177.449 724.273 176.398 724.273 175.199 c 724.273 143.324 l 724.273 143.25
 724.273 143.25 724.352 143.25 c 725.324 143.25 l 725.324 143.25 725.398
 143.25 725.398 143.324 c 725.398 175.273 l 725.398 176.852 724.727 178.273
 723.375 179.551 c 722.023 180.824 720.375 181.5 718.648 181.5 c h
718.648 181.5 m f
677.25 178.949 m 678.375 180 679.801 180.523 681.449 180.523 c 688.727 
180.523 l 690.301 180.523 691.727 180 692.926 179.023 c 694.051 177.977 
694.648 176.699 694.648 175.273 c 694.648 149.625 l 694.648 147.824 693.75
 146.398 692.023 145.199 c 691.051 144.602 689.926 144.375 688.727 144.375
 c 681.449 144.375 l 679.801 144.375 678.449 144.898 677.25 145.875 c 676.051
 146.926 675.523 148.199 675.523 149.625 c 675.523 175.273 l 675.523 176.699
 676.125 177.898 677.25 178.949 c h
677.699 144.301 m 678.898 143.699 679.949 143.398 680.773 143.398 c 681.375
 143.398 681.824 143.398 682.125 143.398 c 688.051 143.398 l 688.426 143.398
 688.801 143.398 689.324 143.398 c 690.449 143.551 691.273 143.699 691.875
 144 c 693.602 144.824 694.727 146.023 695.324 147.602 c 695.551 148.199
 695.699 148.875 695.699 149.551 c 695.699 175.352 l 695.699 177.523 694.574
 179.25 692.324 180.602 c 691.125 181.199 690 181.5 688.801 181.5 c 681.148
 181.5 l 678.977 181.5 677.102 180.602 675.523 178.875 c 674.699 177.75 
674.324 176.551 674.324 175.352 c 674.324 149.551 l 674.477 147.449 675.523
 145.648 677.699 144.301 c h
677.699 144.301 m f
644.699 175.352 m 644.699 172.949 l 644.699 172.875 644.699 172.875 644.773
 172.875 c 645.75 172.875 l 645.824 172.875 645.824 172.875 645.824 172.949
 c 645.824 174.824 l 645.824 176.477 646.352 177.824 647.398 178.727 c 648.676
 179.926 650.102 180.449 651.824 180.449 c 659.25 180.449 l 661.051 180.449
 662.551 179.773 663.824 178.352 c 664.648 177.375 665.023 176.324 665.023
 175.199 c 665.023 167.551 l 665.023 165.602 664.051 164.102 662.023 162.977
 c 661.125 162.523 660.227 162.301 659.324 162.301 c 652.051 162.301 l 649.426
 162.301 647.324 161.25 645.824 159.148 c 645.227 158.176 644.926 157.125
 644.926 156.148 c 644.926 149.477 l 644.926 147.449 645.898 145.727 647.773
 144.375 c 648.676 143.773 649.648 143.398 650.773 143.25 c 651.375 143.176
 l 659.25 143.176 l 661.273 143.176 663 143.926 664.426 145.352 c 665.551
 146.551 666.148 147.977 666.148 149.551 c 666.148 151.648 l 666.148 151.727
 666.148 151.727 666.074 151.727 c 665.102 151.727 l 665.023 151.727 665.023
 151.727 665.023 151.648 c 665.023 149.398 l 665.023 147.375 663.898 145.727
 661.727 144.602 c 660.898 144.227 660 144 659.102 144 c 651.898 144 l 649.875
 144 648.227 144.824 646.949 146.398 c 646.352 147.301 645.977 148.199 645.977
 149.176 c 645.977 155.926 l 645.977 157.801 646.949 159.301 648.898 160.426
 c 649.801 160.875 650.926 161.102 652.273 161.102 c 658.801 161.102 l 658.875
 161.102 659.023 161.102 659.102 161.102 c 660.977 161.102 662.625 161.773
 664.199 163.125 c 665.477 164.398 666.074 165.75 666.074 167.25 c 666.074
 175.051 l 666.074 177.074 665.102 178.727 663.074 180.074 c 661.801 180.824
 660.449 181.199 659.102 181.199 c 651.75 181.199 l 649.5 181.199 647.551
 180.301 645.898 178.5 c 645.148 177.676 644.699 176.551 644.699 175.352
 c h
644.699 175.352 m f
617.324 179.398 m 617.324 143.625 l 617.398 143.551 l 618.449 143.551 l
 618.523 143.551 618.523 143.551 618.523 143.625 c 618.523 183.75 l 618.449
 183.75 l 609.602 167.023 604.727 157.727 603.676 155.773 c 598.352 145.727
 l 598.352 181.648 l 598.352 181.648 598.352 181.727 598.273 181.727 c 597.301
 181.727 l 597.301 181.727 597.227 181.727 597.227 181.648 c 597.227 141.602
 l 597.301 141.602 l 608.25 162.375 l 608.398 162.676 611.398 168.301 617.176
 179.25 c 617.25 179.176 617.25 179.324 617.324 179.398 c h
617.324 179.398 m f
588.676 161.477 m 588.75 161.551 588.75 161.551 588.676 161.477 c 588.75
 162.375 l 588.75 162.375 588.75 162.375 588.676 162.375 c 568.5 162.375
 l 568.5 180.449 l 588.676 180.449 l 588.75 180.449 588.75 180.449 588.75
 180.523 c 588.75 181.352 l 588.75 181.426 588.75 181.426 588.676 181.426
 c 567.523 181.426 l 567.523 181.426 567.449 181.426 567.449 181.352 c 567.449
 143.398 l 567.449 143.324 567.449 143.324 567.523 143.324 c 588.676 143.324
 l 588.75 143.324 588.75 143.324 588.75 143.398 c 588.75 144.227 l 588.75
 144.227 588.75 144.301 588.676 144.301 c 568.5 144.301 l 568.5 161.398 
l h
588.676 161.477 m f
557.398 159 m 557.773 158.25 558 157.5 558 156.676 c 558 149.699 l 558 
147.676 556.875 146.023 554.699 144.898 c 553.875 144.523 552.977 144.375
 552.074 144.375 c 538.801 144.375 l 538.801 161.926 l 552.074 161.926 l
 553.051 161.852 553.801 161.699 554.324 161.477 c 555.75 160.949 556.727
 160.125 557.398 159 c h
559.051 156.977 m 559.051 158.102 558.523 159.301 557.551 160.5 c 556.051
 162.074 554.176 162.898 551.926 162.898 c 538.875 162.898 l 538.875 181.426
 l 538.875 181.5 538.875 181.5 538.801 181.5 c 537.824 181.5 l 537.824 181.5
 537.75 181.5 537.75 181.426 c 537.75 143.477 l 537.75 143.398 537.75 143.398
 537.824 143.398 c 552.227 143.398 l 554.25 143.398 555.898 144.148 557.398
 145.574 c 558.523 146.773 559.125 148.199 559.125 149.773 c 559.125 156.977
 l h
559.051 156.977 m f
522.301 144.375 m 515.023 144.375 l 513.375 144.375 512.023 144.898 510.898
 145.875 c 509.699 146.926 509.102 148.199 509.102 149.625 c 509.102 175.273
 l 509.102 176.699 509.699 177.898 510.824 178.949 c 511.949 180 513.375
 180.523 515.023 180.523 c 522.301 180.523 l 523.949 180.523 525.301 180
 526.5 179.023 c 527.625 177.977 528.227 176.699 528.227 175.273 c 528.227
 149.625 l 528.227 147.824 527.324 146.398 525.602 145.199 c 524.625 144.676
 523.5 144.375 522.301 144.375 c h
515.699 143.477 m 521.625 143.477 l 522 143.477 522.375 143.477 522.898
 143.477 c 524.023 143.625 524.852 143.773 525.449 144.074 c 527.176 144.898
 528.301 146.102 528.898 147.676 c 529.125 148.273 529.273 148.949 529.273
 149.625 c 529.273 175.426 l 529.273 177.602 528.148 179.324 525.977 180.676
 c 524.773 181.273 523.648 181.574 522.449 181.574 c 514.801 181.574 l 512.625
 181.574 510.75 180.676 509.176 178.949 c 508.352 177.824 507.977 176.625
 507.977 175.426 c 507.977 149.625 l 507.977 147.523 509.102 145.727 511.273
 144.375 c 512.477 143.773 513.523 143.477 514.352 143.477 c 515.023 143.477
 515.398 143.477 515.699 143.477 c h
515.699 143.477 m f
467.852 162.375 m 465.227 162.375 463.125 161.324 461.625 159.227 c 461.023
 158.25 460.727 157.199 460.727 156.227 c 460.727 149.551 l 460.727 147.523
 461.699 145.801 463.574 144.449 c 464.477 143.852 465.449 143.477 466.574
 143.324 c 467.176 143.25 l 475.125 143.25 l 477.148 143.25 478.875 144 
480.301 145.426 c 481.426 146.625 482.023 148.051 482.023 149.625 c 482.023
 151.727 l 482.023 151.801 482.023 151.801 481.949 151.801 c 480.977 151.801
 l 480.977 151.801 480.898 151.801 480.898 151.727 c 480.898 149.477 l 480.898
 147.449 479.773 145.801 477.602 144.676 c 476.773 144.301 475.875 144.074
 474.977 144.074 c 467.773 144.074 l 465.75 144.074 464.102 144.898 462.824
 146.477 c 462.227 147.375 461.852 148.273 461.852 149.25 c 461.852 156 
l 461.852 157.875 462.824 159.375 464.773 160.5 c 465.676 160.949 466.801
 161.176 468.148 161.176 c 474.676 161.176 l 474.75 161.176 474.898 161.176
 474.977 161.176 c 476.852 161.176 478.5 161.852 480.074 163.199 c 481.352
 164.477 481.949 165.824 481.949 167.324 c 481.949 175.125 l 481.949 177.148
 480.977 178.801 478.949 180.148 c 477.676 180.898 476.398 181.273 475.051
 181.273 c 467.625 181.273 l 465.375 181.273 463.426 180.375 461.852 178.574
 c 461.023 177.523 460.574 176.324 460.574 175.199 c 460.574 172.801 l 460.574
 172.727 460.574 172.727 460.648 172.727 c 461.625 172.727 l 461.625 172.727
 461.699 172.727 461.699 172.801 c 461.699 174.676 l 461.699 176.324 462.227
 177.676 463.273 178.574 c 464.551 179.773 465.977 180.301 467.699 180.301
 c 475.051 180.301 l 475.051 180.301 475.051 180.301 475.125 180.301 c 476.926
 180.301 478.426 179.625 479.699 178.199 c 480.523 177.227 480.898 176.176
 480.898 175.051 c 480.898 167.398 l 480.898 165.449 479.926 163.949 477.898
 162.824 c 477 162.375 476.102 162.148 475.199 162.148 c 467.852 162.148
 l h
467.852 162.375 m f
450.898 179.398 m 450.898 143.625 l 450.898 143.625 450.898 143.551 450.977
 143.551 c 452.023 143.551 l 452.023 143.551 452.102 143.551 452.102 143.625
 c 452.102 183.75 l 452.023 183.75 l 443.176 167.023 438.301 157.727 437.25
 155.773 c 431.926 145.727 l 431.926 181.648 l 431.926 181.648 431.926 181.727
 431.852 181.727 c 430.875 181.727 l 430.875 181.727 430.801 181.727 430.801
 181.648 c 430.801 141.602 l 430.875 141.602 l 441.824 162.375 l 441.977
 162.676 444.977 168.301 450.75 179.25 c 450.824 179.176 450.898 179.324
 450.898 179.398 c h
450.898 179.398 m f
415.5 181.5 m 407.852 181.5 l 405.676 181.5 403.801 180.602 402.227 178.875
 c 401.398 177.75 401.023 176.551 401.023 175.352 c 401.023 149.551 l 401.023
 147.449 402.148 145.648 404.324 144.301 c 405.523 143.699 406.574 143.398
 407.398 143.398 c 408 143.398 408.449 143.398 408.75 143.398 c 414.676 
143.398 l 414.977 143.398 415.426 143.398 415.949 143.398 c 417.074 143.551
 417.898 143.699 418.5 144 c 420.227 144.824 421.352 146.023 421.949 147.602
 c 422.176 148.199 422.324 148.875 422.324 149.551 c 422.324 175.352 l 422.324
 177.523 421.199 179.25 418.949 180.602 c 417.824 181.199 416.625 181.5 
415.5 181.5 c h
415.352 180.523 m 416.926 180.523 418.352 180 419.551 179.023 c 420.676
 177.977 421.273 176.699 421.273 175.273 c 421.273 149.625 l 421.273 147.824
 420.375 146.398 418.648 145.199 c 417.676 144.602 416.551 144.375 415.352
 144.375 c 408.074 144.375 l 406.426 144.375 405.074 144.898 403.875 145.875
 c 402.676 146.926 402.148 148.199 402.148 149.625 c 402.148 175.273 l 402.148
 176.699 402.75 177.898 403.875 178.949 c 405 180 406.426 180.523 408.074
 180.523 c h
415.352 180.523 m f
387.898 180.523 m 392.625 180.523 l 392.699 180.523 392.699 180.523 392.699
 180.602 c 392.699 181.426 l 392.699 181.5 392.699 181.5 392.625 181.5 c
 382.125 181.5 l 382.051 181.5 382.051 181.5 382.051 181.426 c 382.051 180.602
 l 382.051 180.602 382.051 180.523 382.125 180.523 c 386.852 180.523 l 386.852
 144.301 l 381.977 144.301 l 381.898 144.301 381.898 144.301 381.898 144.227
 c 381.898 143.398 l 381.898 143.398 381.898 143.324 381.977 143.324 c 392.625
 143.324 l 392.699 143.324 392.699 143.324 392.699 143.398 c 392.699 144.227
 l 392.699 144.301 392.699 144.301 392.625 144.301 c 387.898 144.301 l h
387.898 180.523 m f
362.324 181.426 m 362.324 144.301 l 352.273 144.301 l 352.199 144.301 352.199
 144.301 352.199 144.227 c 352.199 143.398 l 352.199 143.398 352.199 143.324
 352.273 143.324 c 373.5 143.324 l 373.5 143.324 373.574 143.324 373.574
 143.398 c 373.574 144.227 l 373.574 144.301 373.574 144.301 373.5 144.301
 c 363.449 144.301 l 363.449 181.426 l 363.449 181.5 363.449 181.5 363.375
 181.5 c 362.324 181.426 l 362.324 181.5 362.324 181.426 362.324 181.426
 c h
362.324 181.426 m f
343.949 175.352 m 343.949 176.926 343.273 178.352 341.926 179.625 c 340.5
 180.824 338.852 181.426 337.125 181.426 c 329.625 181.426 l 327.523 181.426
 325.727 180.602 324.148 178.949 c 323.477 178.125 323.023 177.227 322.875
 176.324 c 322.727 175.727 l 322.648 175.727 322.648 175.727 322.648 175.648
 c 322.648 143.324 l 322.648 143.25 322.648 143.25 322.727 143.25 c 323.699
 143.25 l 323.773 143.25 323.773 143.25 323.773 143.324 c 323.773 175.273
 l 323.773 175.273 323.852 175.574 323.926 176.176 c 324.301 177.449 324.898
 178.426 325.801 179.102 c 327 179.926 328.199 180.375 329.551 180.375 c
 329.625 180.449 l 329.625 180.449 329.625 180.375 329.699 180.375 c 336.977
 180.375 l 337.051 180.375 337.051 180.375 337.051 180.375 c 338.773 180.375
 340.352 179.699 341.625 178.352 c 342.449 177.375 342.824 176.324 342.824
 175.125 c 342.824 143.25 l 342.824 143.176 342.824 143.176 342.898 143.176
 c 343.875 143.176 l 343.875 143.176 343.949 143.176 343.949 143.25 c h
343.949 175.352 m f
292.875 181.426 m 292.875 143.477 l 292.875 143.398 292.875 143.398 292.949
 143.398 c 293.926 143.398 l 294 143.398 294 143.398 294 143.477 c 294 180.449
 l 314.25 180.449 l 314.25 180.449 314.25 180.449 314.25 180.523 c 314.25
 181.352 l 314.25 181.426 314.25 181.426 314.25 181.426 c 295.5 181.426 
l 294.898 181.426 294 181.426 292.875 181.426 c h
292.875 181.426 m f
283.352 175.273 m 283.352 149.625 l 283.352 147.824 282.449 146.398 280.727
 145.199 c 279.75 144.602 278.625 144.375 277.426 144.375 c 270.148 144.375
 l 268.5 144.375 267.148 144.898 265.949 145.875 c 264.75 146.926 264.227
 148.199 264.227 149.625 c 264.227 175.273 l 264.227 176.699 264.824 177.898
 265.949 178.949 c 267.074 180 268.5 180.523 270.148 180.523 c 277.426 180.523
 l 279 180.523 280.426 180 281.625 179.023 c 282.75 177.977 283.352 176.699
 283.352 175.273 c h
263.176 175.352 m 263.176 149.551 l 263.176 147.449 264.301 145.648 266.477
 144.301 c 267.676 143.699 268.727 143.398 269.551 143.398 c 270.148 143.398
 270.602 143.398 270.824 143.398 c 276.75 143.398 l 277.125 143.398 277.5
 143.398 278.023 143.398 c 279.148 143.551 279.977 143.699 280.574 144 c
 282.301 144.824 283.426 146.023 284.023 147.602 c 284.324 148.199 284.398
 148.875 284.398 149.551 c 284.398 175.352 l 284.398 177.523 283.273 179.25
 281.102 180.602 c 279.898 181.199 278.773 181.5 277.574 181.5 c 270 181.5
 l 267.824 181.5 265.949 180.602 264.375 178.875 c 263.551 177.676 263.176
 176.551 263.176 175.352 c h
263.176 175.352 m f
239.398 143.398 m 240 143.324 l 247.949 143.324 l 249.977 143.324 251.699
 144.074 253.125 145.5 c 254.25 146.699 254.852 148.125 254.852 149.699 
c 254.852 151.801 l 254.852 151.875 254.852 151.875 254.773 151.875 c 253.801
 151.875 l 253.801 151.875 253.727 151.875 253.727 151.801 c 253.727 149.551
 l 253.727 147.523 252.602 145.875 250.426 144.75 c 249.602 144.375 248.699
 144.148 247.801 144.148 c 240.602 144.148 l 238.574 144.148 236.926 144.977
 235.648 146.551 c 234.977 147.449 234.676 148.352 234.676 149.324 c 234.676
 156.074 l 234.676 157.949 235.648 159.449 237.602 160.574 c 238.5 161.023
 239.625 161.25 240.977 161.25 c 247.5 161.25 l 247.574 161.25 247.727 161.25
 247.801 161.25 c 249.676 161.25 251.324 161.926 252.898 163.273 c 254.176
 164.551 254.773 165.898 254.773 167.398 c 254.773 175.199 l 254.773 177.227
 253.801 178.875 251.773 180.227 c 250.5 180.977 249.227 181.352 247.875
 181.352 c 240.449 181.352 l 238.199 181.352 236.25 180.449 234.676 178.648
 c 233.852 177.602 233.398 176.398 233.398 175.273 c 233.398 172.875 l 233.398
 172.801 233.398 172.801 233.477 172.801 c 234.449 172.801 l 234.449 172.801
 234.523 172.801 234.523 172.875 c 234.523 174.75 l 234.523 176.398 235.051
 177.75 236.102 178.648 c 237.375 179.852 238.801 180.375 240.523 180.375
 c 247.875 180.375 l 247.875 180.375 247.875 180.375 247.949 180.375 c 249.75
 180.375 251.25 179.699 252.523 178.273 c 253.352 177.301 253.727 176.25
 253.727 175.125 c 253.727 167.477 l 253.727 165.523 252.75 164.023 250.727
 162.898 c 249.824 162.449 248.926 162.227 248.023 162.227 c 240.75 162.227
 l 238.125 162.227 236.023 161.176 234.523 159.074 c 233.926 158.102 233.625
 157.051 233.625 156.074 c 233.625 149.398 l 233.625 147.375 234.602 145.648
 236.477 144.301 c 237.375 143.926 238.352 143.551 239.398 143.398 c h
239.398 143.398 m f
2.25 w
0 J
0 j
[] 0.0 d
10 M q 1 0 0 1 0 0 cm
209.625 186.977 m 204.148 197.25 26.477 195.375 21.75 186.977 c 17.023 
178.574 15.602 24.301 21.75 14.852 c 27.898 5.398 204.898 4.574 209.625 
14.852 c 214.426 25.125 215.102 176.773 209.625 186.977 c h
209.625 186.977 m S Q
138.375 100.352 m 139.273 102 l 137.699 102.449 136.199 103.051 134.625
 103.5 c 121.574 107.324 109.199 111 97.875 113.699 c 53.625 37.352 l 101.551
 37.352 l h
138.375 100.352 m f
141.227 105.227 m 175.273 164.398 l 127.352 164.398 l 114.375 142.125 l
 100.051 117.375 l 107.699 115.426 115.648 113.176 123.824 110.773 c 129.75
 108.977 135.602 107.102 141.227 105.227 c h
141.227 105.227 m f
151.125 78.824 m 140.477 97.125 l 129.523 78.824 l h
151.125 78.824 m f
176.102 37.273 m 158.398 67.352 l 122.477 67.352 l 104.699 37.273 l h
176.102 37.273 m f
88.199 104.023 m 94.199 114.449 l 89.398 115.574 84.824 116.551 80.551 
117.375 c h
88.199 104.023 m f
96.449 118.273 m 112.199 145.574 l 101.176 164.477 l 53.699 164.477 l 77.551
 122.625 l 83.551 121.352 89.852 119.926 96.449 118.273 c h
96.449 118.273 m f
202.801 77.102 m 204.523 76.352 l 204.898 76.199 l 191.852 83.852 160.574
 95.852 123.301 107.023 c 73.051 122.102 30.977 129.977 29.398 124.574 c
 27.824 119.477 46.648 111.449 74.852 101.477 c 75.148 101.625 l 53.699 
109.801 40.051 116.625 40.949 119.477 c 42.375 124.273 84.301 115.949 134.551
 100.875 c 162.227 92.625 186.676 84 202.801 77.102 c h
202.801 77.102 m f
Q Q
showpage
%%Trailer
end
%%EOF
