@startuml

participant "OS" as OS
participant "Agent OCS" as A
participant "Serveur communication" as S

OS -> A ++ : tâche CRON
group Prolog
A -> S ++ : [PUT] request inv
return [200] Liste des tâches
end
ref over OS, A : Inventaire matériel
ref over OS, A : SNMP, IPdiscover
ref over OS, A : Intérrogation APT
group Envoi inventaire
A-> S ++ : [PUT] Inventaire XML
return [200]
end
return réussite

@enduml