+---------------------------+
| Tables_in_ocsweb          |
+---------------------------+
| accesslog                 |
| accountinfo               |
| accountinfo_config        |
| archive                   |
| assets_categories         |
| auth_attempt              |
| batteries                 |
| bios                      |
| blacklist_macaddresses    |
| blacklist_serials         |
| blacklist_subnet          |
| config                    |
| conntrack                 |
| controllers               |
| cpus                      |
| cve_search                |
| cve_search_computer       |
| cve_search_correspondance |
| cve_search_history        |
| deleted_equiv             |
| deploy                    |
| devices                   |
| devicetype                |
| dico_ignored              |
| dico_soft                 |
| download_affect_rules     |
| download_available        |
| download_enable           |
| download_history          |
| download_servers          |
| downloadwk_conf_values    |
| downloadwk_fields         |
| downloadwk_history        |
| downloadwk_pack           |
| downloadwk_statut_request |
| downloadwk_tab_values     |
| drives                    |
| engine_mutex              |
| engine_persistent         |
| extensions                |
| files                     |
| groups                    |
| groups_cache              |
| hardware                  |
| hardware_osname_cache     |
| inputs                    |
| itmgmt_comments           |
| javainfo                  |
| journallog                |
| languages                 |
| local_groups              |
| local_users               |
| locks                     |
| memories                  |
| modems                    |
| monitors                  |
| netmap                    |
| network_devices           |
| networks                  |
| notification              |
| notification_config       |
| operators                 |
| ports                     |
| printers                  |
| prolog_conntrack          |
| regconfig                 |
| registry                  |
| registry_name_cache       |
| registry_regvalue_cache   |
| repository                |
| saas                      |
| saas_exp                  |
| save_query                |
| schedule_WOL              |
| sim                       |
| slots                     |
| snmp_communities          |
| snmp_configs              |
| snmp_default              |
| snmp_labels               |
| snmp_mibs                 |
| snmp_types                |
| snmp_types_conditions     |
| software                  |
| software_categories       |
| software_categories_link  |
| software_category_exp     |
| software_link             |
| software_name             |
| software_possible         |
| software_publisher        |
| software_version          |
| softwares_name_cache      |
| sounds                    |
| ssl_store                 |
| storages                  |
| subnet                    |
| tags                      |
| temp_files                |
| usbdevices                |
| videos                    |
| virtualmachines           |
+---------------------------+
